data version control for the {targets} R package
…
* {[gittargets](https://docs.ropensci.org/gittargets/)} and [cloud integration](https://books.ropensci.org/targets/data.html#cloud-storage) manage historical data for {[targets](https://docs.ropensci.org/targets/)}.

???

Beyond that, different pipeline tools have different priorities. Apache Airflow and GNU Make are two examples. Airflow cares about data pipelines that run on a regular schedule, need to run completely from end to end every time, and need a complete historical record of all past results. Make, on the other hand, only cares about the *current* state of the input and output data, and it cares that the output is synchronized with the code and input it came from. If an output artifact is up to date with its dependencies, then Make will not bother to run that task. This really comes in handy for a data analysis project under active development. If your pipeline tool automatically figures out what to rerun and what to skip, you save an *enormous* amount of time, and you have the peace of mind that your input and output and code are synchronized, up to date, and reproducible.

The {targets} R package is a Make-like tool. It has the benefits of Make, such as skipping tasks that are already up to date. And it also preserves the look and feel of an R session. It nudges users toward good programming practices for the R language, and the interface abstracts away output data files so they look and feel like ordinary variables in R.

---

# Data access in {targets}

```r
tar_read(tidy_data)
#> # A tibble: 7,043 × 21
#>    customerID gender SeniorCitizen Partner Dependents tenure PhoneService
#>    <chr>      <chr>          <dbl> <chr>   <chr>       <dbl> <chr>       
#>  1 7590-VHVEG Female             0 Yes     No              1 No          
#>  2 5575-GNVDE Male               0 No      No             34 Yes         
#>  3 3668-QPYBK Male               0 No      No              2 Yes         
#>  4 7795-CFOCW Male               0 No      No             45 No          
#>  5 9237-HQITU Female             0 No      No              2 Yes         
#>  6 9305-CDSKC Female             0 No      No              8 Yes         
#>  7 1452-KIOVK Male               0 No      Yes            22 Yes         
#>  8 6713-OKOMC Female             0 No      No             10 No          
#>  9 7892-POOKP Female             0 Yes     No             28 Yes         
#> 10 6388-TABGU Male               0 No      Yes            62 Yes         
#> # … with 7,033 more rows, and 14 more variables: MultipleLines <chr>,
#> #   InternetService <chr>, OnlineSecurity <chr>, OnlineBackup <chr>,
#> #   DeviceProtection <chr>, TechSupport <chr>, StreamingTV <chr>,
#> #   StreamingMovies <chr>, Contract <chr>, PaperlessBilling <chr>,
#> #   PaymentMethod <chr>, MonthlyCharges <dbl>, TotalCharges <dbl>, Churn <chr>
```
…
